I2S_controller_reciever.sim/sim_1/behav/xsim/i2s_testbench.vcd
$date
   Sun Jan  5 01:40:04 2025
$end
$version
  2018.2
$end
$timescale
  1ps
$end
$scope module i2s_testbench $end
$var reg 1 ! clk $end
$var reg 1 " reset_n $end
$var reg 1 # i2s_sd $end
$var wire 1 $ i2s_sck $end
$var wire 1 % i2s_ws $end
$var wire 16 & left_channel [15:0] $end
$var wire 16 ' right_channel [15:0] $end
$var wire 1 ( data_valid $end
$var parameter 32 ) CLK_PERIOD [31:0] $end
$scope module dut $end
$var wire 1 * clk $end
$var wire 1 + reset_n $end
$var wire 1 , i2s_sd $end
$var reg 1 - i2s_sck $end
$var reg 1 . i2s_ws $end
$var reg 16 / left_channel [15:0] $end
$var reg 16 0 right_channel [15:0] $end
$var reg 1 1 data_valid $end
$var reg 16 2 shift_register [15:0] $end
$var reg 4 3 bit_counter [3:0] $end
$var reg 4 4 sck_counter [3:0] $end
$var reg 1 5 ws_flag $end
$var parameter 32 6 SCK_DIV [31:0] $end
$upscope $end
$scope task send_i2s_word $end
$var reg 16 7 data [15:0] $end
$var integer 32 8 i $end
$upscope $end
$upscope $end
$enddefinitions $end
#0
$dumpvars
0!
0"
0#
0$
0%
b0 &
b0 '
0(
b1010 )
0*
0+
0,
0-
0.
b0 /
b0 0
01
b0 2
b0 3
b0 4
05
b1000 6
bx 7
bx 8
$end
#5000
1!
1*
#10000
0!
0*
#15000
1!
1*
#20000
0!
0*
#25000
1!
1*
#30000
0!
0*
#35000
1!
1*
#40000
0!
0*
#45000
1!
1*
#50000
0!
1"
1#
0*
1+
1,
b1010101010101010 7
b1111 8
#55000
1!
1*
b1 4
#60000
0!
0*
#65000
1!
1*
b10 4
#70000
0!
0*
#75000
1!
1*
b11 4
#80000
0!
0*
#85000
1!
1$
1*
1-
b1 2
b1 3
b0 4
#90000
0!
0*
#95000
1!
1*
b1 4
#100000
0!
0*
#105000
1!
1*
b10 4
#110000
0!
0*
#115000
1!
1*
b11 4
#120000
0!
0*
#125000
1!
0$
1*
0-
b0 4
#130000
0!
0#
0*
0,
b1110 8
#135000
1!
1*
b1 4
#140000
0!
0*
#145000
1!
1*
b10 4
#150000
0!
0*
#155000
1!
1*
b11 4
#160000
0!
0*
#165000
1!
1$
1*
1-
b10 2
b10 3
b0 4
#170000
0!
0*
#175000
1!
1*
b1 4
#180000
0!
0*
#185000
1!
1*
b10 4
#190000
0!
0*
#195000
1!
1*
b11 4
#200000
0!
0*
#205000
1!
0$
1*
0-
b0 4
#210000
0!
1#
0*
1,
b1101 8
#215000
1!
1*
b1 4
#220000
0!
0*
#225000
1!
1*
b10 4
#230000
0!
0*
#235000
1!
1*
b11 4
#240000
0!
0*
#245000
1!
1$
1*
1-
b101 2
b11 3
b0 4
#250000
0!
0*
#255000
1!
1*
b1 4
#260000
0!
0*
#265000
1!
1*
b10 4
#270000
0!
0*
#275000
1!
1*
b11 4
#280000
0!
0*
#285000
1!
0$
1*
0-
b0 4
#290000
0!
0#
0*
0,
b1100 8
#295000
1!
1*
b1 4
#300000
0!
0*
#305000
1!
1*
b10 4
#310000
0!
0*
#315000
1!
1*
b11 4
#320000
0!
0*
#325000
1!
1$
1*
1-
b1010 2
b100 3
b0 4
#330000
0!
0*
#335000
1!
1*
b1 4
#340000
0!
0*
#345000
1!
1*
b10 4
#350000
0!
0*
#355000
1!
1*
b11 4
#360000
0!
0*
#365000
1!
0$
1*
0-
b0 4
#370000
0!
1#
0*
1,
b1011 8
#375000
1!
1*
b1 4
#380000
0!
0*
#385000
1!
1*
b10 4
#390000
0!
0*
#395000
1!
1*
b11 4
#400000
0!
0*
#405000
1!
1$
1*
1-
b10101 2
b101 3
b0 4
#410000
0!
0*
#415000
1!
1*
b1 4
#420000
0!
0*
#425000
1!
1*
b10 4
#430000
0!
0*
#435000
1!
1*
b11 4
#440000
0!
0*
#445000
1!
0$
1*
0-
b0 4
#450000
0!
0#
0*
0,
b1010 8
#455000
1!
1*
b1 4
#460000
0!
0*
#465000
1!
1*
b10 4
#470000
0!
0*
#475000
1!
1*
b11 4
#480000
0!
0*
#485000
1!
1$
1*
1-
b101010 2
b110 3
b0 4
#490000
0!
0*
#495000
1!
1*
b1 4
#500000
0!
0*
#505000
1!
1*
b10 4
#510000
0!
0*
#515000
1!
1*
b11 4
#520000
0!
0*
#525000
1!
0$
1*
0-
b0 4
#530000
0!
1#
0*
1,
b1001 8
#535000
1!
1*
b1 4
#540000
0!
0*
#545000
1!
1*
b10 4
#550000
0!
0*
#555000
1!
1*
b11 4
#560000
0!
0*
#565000
1!
1$
1*
1-
b1010101 2
b111 3
b0 4
#570000
0!
0*
#575000
1!
1*
b1 4
#580000
0!
0*
#585000
1!
1*
b10 4
#590000
0!
0*
#595000
1!
1*
b11 4
#600000
0!
0*
#605000
1!
0$
1*
0-
b0 4
#610000
0!
0#
0*
0,
b1000 8
#615000
1!
1*
b1 4
#620000
0!
0*
#625000
1!
1*
b10 4
#630000
0!
0*
#635000
1!
1*
b11 4
#640000
0!
0*
#645000
1!
1$
1*
1-
b10101010 2
b1000 3
b0 4
#650000
0!
0*
#655000
1!
1*
b1 4
#660000
0!
0*
#665000
1!
1*
b10 4
#670000
0!
0*
#675000
1!
1*
b11 4
#680000
0!
0*
#685000
1!
0$
1*
0-
b0 4
#690000
0!
1#
0*
1,
b111 8
#695000
1!
1*
b1 4
#700000
0!
0*
#705000
1!
1*
b10 4
#710000
0!
0*
#715000
1!
1*
b11 4
#720000
0!
0*
#725000
1!
1$
1*
1-
b101010101 2
b1001 3
b0 4
#730000
0!
0*
#735000
1!
1*
b1 4
#740000
0!
0*
#745000
1!
1*
b10 4
#750000
0!
0*
#755000
1!
1*
b11 4
#760000
0!
0*
#765000
1!
0$
1*
0-
b0 4
#770000
0!
0#
0*
0,
b110 8
#775000
1!
1*
b1 4
#780000
0!
0*
#785000
1!
1*
b10 4
#790000
0!
0*
#795000
1!
1*
b11 4
#800000
0!
0*
#805000
1!
1$
1*
1-
b1010101010 2
b1010 3
b0 4
#810000
0!
0*
#815000
1!
1*
b1 4
#820000
0!
0*
#825000
1!
1*
b10 4
#830000
0!
0*
#835000
1!
1*
b11 4
#840000
0!
0*
#845000
1!
0$
1*
0-
b0 4
#850000
0!
1#
0*
1,
b101 8
#855000
1!
1*
b1 4
#860000
0!
0*
#865000
1!
1*
b10 4
#870000
0!
0*
#875000
1!
1*
b11 4
#880000
0!
0*
#885000
1!
1$
1*
1-
b10101010101 2
b1011 3
b0 4
#890000
0!
0*
#895000
1!
1*
b1 4
#900000
0!
0*
#905000
1!
1*
b10 4
#910000
0!
0*
#915000
1!
1*
b11 4
#920000
0!
0*
#925000
1!
0$
1*
0-
b0 4
#930000
0!
0#
0*
0,
b100 8
#935000
1!
1*
b1 4
#940000
0!
0*
#945000
1!
1*
b10 4
#950000
0!
0*
#955000
1!
1*
b11 4
#960000
0!
0*
#965000
1!
1$
1*
1-
b101010101010 2
b1100 3
b0 4
#970000
0!
0*
#975000
1!
1*
b1 4
#980000
0!
0*
#985000
1!
1*
b10 4
#990000
0!
0*
#995000
1!
1*
b11 4
